[
    {
      "id": "TwitchPubSubOK",
      "httpRequest": {
        "path": "/helix/extensions/pubsub",
        "headers": {
            "Authorization": ["Bearer .*"],
            "Client-Id": [".*"]
        },
        "body": {
            "type": "JSON_SCHEMA",
            "jsonSchema": {
                "$schema": "https://json-schema.org/draft-04/schema#",
                "title": "PubSubMessage",
                "description": "Twitch PubSub Message",
                "type": "object",
                "properties": {
                    "target": {
                        "type": "array",
                        "items": {
                            "type": "string"
                        },
                        "minItems": 1,
                        "maxItems": 1
                    },
                    "broadcaster_id": {
                        "type": "string"
                    },
                    "is_global_broadcast": {
                        "type": "boolean"
                    },
                    "message": {
                        "type": "string"
                    }
                },
                "required": [
                    "target",
                    "is_global_broadcast",
                    "message"
                ]
            }
        }
      },
      "httpResponse": {
        "statusCode": 204
      }
    },
    {
      "id": "TwitchPubSubFail",
      "httpRequest": {
        "path": "/helix/extensions/pubsub"
      },
      "httpResponse": {
        "statusCode": 400,
        "body": "Bad request"
      }
    }
]
